{
	"startedTime": "2023-04-28T08:52:38.005344Z",
	"finishedTime": "2023-04-28T08:52:44.044469Z",
	"progress": "5 / 5  (100.00 %)",
	"sumOfStatuses": {
		"OK": 5,
		"WARNING": 0,
		"ERROR": 0
	},
	"report": {
		"content": [
			{
				"importCode": "35328",
				"productNo": "9788202611842",
				"action": "UPDATE",
				"status": "OK",
				"messages": [],
				"importJSON": null
			},
			{
				"importCode": "35327",
				"productNo": "9788202611859",
				"action": "UPDATE",
				"status": "OK",
				"messages": [],
				"importJSON": null
			}
		],
		"pageable": {
			"sort": {
				"empty": true,
				"sorted": false,
				"unsorted": true
			},
			"offset": 3,
			"pageNumber": 1,
			"pageSize": 3,
			"paged": true,
			"unpaged": false
		},
		"totalPages": 2,
		"totalElements": 5,
		"last": true,
		"size": 3,
		"number": 1,
		"sort": {
			"empty": true,
			"sorted": false,
			"unsorted": true
		},
		"numberOfElements": 2,
		"first": false,
		"empty": false
	}
}
